Parte B/simulation/qsim/sumador.msim.vcd
$comment
	File created using the following command:
		vcd file sumador.msim.vcd -direction
$end
$date
	Mon Nov 13 20:13:44 2023
$end
$version
	ModelSim Version 10.1d
$end
$timescale
	1ps
$end
$scope module sumador_vlg_vec_tst $end
$var reg 1 ! clk $end
$var reg 1 " in_a $end
$var reg 1 # in_b $end
$var reg 1 $ in_cin $end
$var wire 1 % o_cout $end
$var wire 1 & o_f $end
$var wire 1 ' sampler $end
$scope module i1 $end
$var wire 1 ( gnd $end
$var wire 1 ) vcc $end
$var wire 1 * unknown $end
$var tri1 1 + devclrn $end
$var tri1 1 , devpor $end
$var tri1 1 - devoe $end
$var wire 1 . D3|Q~q $end
$var wire 1 / in_cin~input_o $end
$var wire 1 0 D3|Q~feeder_combout $end
$var wire 1 1 o_f~output_o $end
$var wire 1 2 o_cout~output_o $end
$var wire 1 3 clk~input_o $end
$var wire 1 4 clk~inputclkctrl_outclk $end
$var wire 1 5 in_b~input_o $end
$var wire 1 6 D2|Q~feeder_combout $end
$var wire 1 7 D2|Q~q $end
$var wire 1 8 in_a~input_o $end
$var wire 1 9 D1|Q~feeder_combout $end
$var wire 1 : D1|Q~q $end
$var wire 1 ; f~0_combout $end
$var wire 1 < D5|Q~q $end
$var wire 1 = cout~0_combout $end
$var wire 1 > D4|Q~q $end
$upscope $end
$upscope $end
$enddefinitions $end
#0
$dumpvars
0!
0"
0#
0$
0%
0&
x'
0(
1)
x*
1+
1,
1-
0.
0/
00
01
02
03
04
05
06
07
08
09
0:
0;
0<
0=
0>
$end
#10000
1!
13
14
0'
#20000
0!
03
04
1'
#30000
1!
13
14
0'
#40000
1$
0!
1/
03
04
1'
10
#50000
1!
13
14
0'
1.
1;
#60000
0!
03
04
1'
#70000
1!
13
14
0'
1<
11
1&
#80000
1#
0$
0!
15
0/
03
04
1'
16
00
#90000
1!
13
14
0'
17
0.
#100000
0!
03
04
1'
#110000
1!
13
14
0'
#120000
1$
0!
1/
03
04
1'
10
#130000
1!
13
14
0'
1.
1=
0;
#140000
0!
03
04
1'
#150000
1!
13
14
0'
1>
0<
12
01
1%
0&
#160000
1"
0#
0$
0!
18
05
0/
03
04
1'
19
06
00
#170000
1!
13
14
0'
1:
07
0.
0=
1;
#180000
0!
03
04
1'
#190000
1!
13
14
0'
0>
1<
02
11
0%
1&
#200000
1$
0!
1/
03
04
1'
10
#210000
1!
13
14
0'
1.
1=
0;
#220000
0!
03
04
1'
#230000
1!
13
14
0'
1>
0<
12
01
1%
0&
#240000
1#
0$
0!
15
0/
03
04
1'
16
00
#250000
1!
13
14
0'
17
0.
#260000
0!
03
04
1'
#270000
1!
13
14
0'
#280000
1$
0!
1/
03
04
1'
10
#290000
1!
13
14
0'
1.
1;
#300000
0!
03
04
1'
#310000
1!
13
14
0'
1<
11
1&
#320000
0"
0#
0$
0!
08
05
0/
03
04
1'
09
06
00
#330000
1!
13
14
0'
0:
07
0.
0=
0;
#340000
0!
03
04
1'
#350000
1!
13
14
0'
0>
0<
02
01
0%
0&
#360000
1$
0!
1/
03
04
1'
10
#370000
1!
13
14
0'
1.
1;
#380000
0!
03
04
1'
#390000
1!
13
14
0'
1<
11
1&
#400000
1#
0$
0!
15
0/
03
04
1'
16
00
#410000
1!
13
14
0'
17
0.
#420000
0!
03
04
1'
#430000
1!
13
14
0'
#440000
1$
0!
1/
03
04
1'
10
#450000
1!
13
14
0'
1.
1=
0;
#460000
0!
03
04
1'
#470000
1!
13
14
0'
1>
0<
12
01
1%
0&
#480000
1"
0#
0$
0!
18
05
0/
03
04
1'
19
06
00
#490000
1!
13
14
0'
1:
07
0.
0=
1;
#500000
0!
03
04
1'
#510000
1!
13
14
0'
0>
1<
02
11
0%
1&
#520000
1$
0!
1/
03
04
1'
10
#530000
1!
13
14
0'
1.
1=
0;
#540000
0!
03
04
1'
#550000
1!
13
14
0'
1>
0<
12
01
1%
0&
#560000
1#
0$
0!
15
0/
03
04
1'
16
00
#570000
1!
13
14
0'
17
0.
#580000
0!
03
04
1'
#590000
1!
13
14
0'
#600000
1$
0!
1/
03
04
1'
10
#610000
1!
13
14
0'
1.
1;
#620000
0!
03
04
1'
#630000
1!
13
14
0'
1<
11
1&
#640000
0"
0#
0$
0!
08
05
0/
03
04
1'
09
06
00
#650000
1!
13
14
0'
0:
07
0.
0=
0;
#660000
0!
03
04
1'
#670000
1!
13
14
0'
0>
0<
02
01
0%
0&
#680000
1$
0!
1/
03
04
1'
10
#690000
1!
13
14
0'
1.
1;
#700000
0!
03
04
1'
#710000
1!
13
14
0'
1<
11
1&
#720000
1#
0$
0!
15
0/
03
04
1'
16
00
#730000
1!
13
14
0'
17
0.
#740000
0!
03
04
1'
#750000
1!
13
14
0'
#760000
1$
0!
1/
03
04
1'
10
#770000
1!
13
14
0'
1.
1=
0;
#780000
0!
03
04
1'
#790000
1!
13
14
0'
1>
0<
12
01
1%
0&
#800000
1"
0#
0$
0!
18
05
0/
03
04
1'
19
06
00
#810000
1!
13
14
0'
1:
07
0.
0=
1;
#820000
0!
03
04
1'
#830000
1!
13
14
0'
0>
1<
02
11
0%
1&
#840000
1$
0!
1/
03
04
1'
10
#850000
1!
13
14
0'
1.
1=
0;
#860000
0!
03
04
1'
#870000
1!
13
14
0'
1>
0<
12
01
1%
0&
#880000
1#
0$
0!
15
0/
03
04
1'
16
00
#890000
1!
13
14
0'
17
0.
#900000
0!
03
04
1'
#910000
1!
13
14
0'
#920000
1$
0!
1/
03
04
1'
10
#930000
1!
13
14
0'
1.
1;
#940000
0!
03
04
1'
#950000
1!
13
14
0'
1<
11
1&
#960000
0"
0#
0$
0!
08
05
0/
03
04
1'
09
06
00
#970000
1!
13
14
0'
0:
07
0.
0=
0;
#980000
0!
03
04
1'
#990000
1!
13
14
0'
0>
0<
02
01
0%
0&
