Parte C/simulation/qsim/parte_C.msim.vcd
$comment
	File created using the following command:
		vcd file parte_C.msim.vcd -direction
$end
$date
	Mon Nov 13 21:22:34 2023
$end
$version
	ModelSim Version 10.1d
$end
$timescale
	1ps
$end
$scope module sumador_completo_vlg_vec_tst $end
$var reg 1 ! a0 $end
$var reg 1 " a1 $end
$var reg 1 # a2 $end
$var reg 1 $ a3 $end
$var reg 1 % b0 $end
$var reg 1 & b1 $end
$var reg 1 ' b2 $end
$var reg 1 ( b3 $end
$var reg 1 ) suma_resta $end
$var wire 1 * C $end
$var wire 1 + f0 $end
$var wire 1 , f1 $end
$var wire 1 - f2 $end
$var wire 1 . f4 $end
$var wire 1 / V $end
$var wire 1 0 Z $end
$var wire 1 1 sampler $end
$scope module i1 $end
$var wire 1 2 gnd $end
$var wire 1 3 vcc $end
$var wire 1 4 unknown $end
$var tri1 1 5 devclrn $end
$var tri1 1 6 devpor $end
$var tri1 1 7 devoe $end
$var wire 1 8 f4~output_o $end
$var wire 1 9 C~output_o $end
$var wire 1 : f2~output_o $end
$var wire 1 ; f1~output_o $end
$var wire 1 < f0~output_o $end
$var wire 1 = V~output_o $end
$var wire 1 > Z~output_o $end
$var wire 1 ? a3~input_o $end
$var wire 1 @ suma_resta~input_o $end
$var wire 1 A b1~input_o $end
$var wire 1 B SYNTHESIZED_WIRE_15~combout $end
$var wire 1 C b0~input_o $end
$var wire 1 D a0~input_o $end
$var wire 1 E b2v_inst3|cout~1_combout $end
$var wire 1 F b2v_inst3|cout~0_combout $end
$var wire 1 G b2v_inst2|cout~0_combout $end
$var wire 1 H a2~input_o $end
$var wire 1 I b2v_inst|cout~0_combout $end
$var wire 1 J b3~input_o $end
$var wire 1 K b2v_inst1|f~0_combout $end
$var wire 1 L C~2_combout $end
$var wire 1 M b2~input_o $end
$var wire 1 N b2v_inst|f~0_combout $end
$var wire 1 O a1~input_o $end
$var wire 1 P b2v_inst2|f~combout $end
$var wire 1 Q b2v_inst3|f~0_combout $end
$var wire 1 R V~2_combout $end
$var wire 1 S b2v_inst3|cout~combout $end
$var wire 1 T b2v_inst1|cout~0_combout $end
$var wire 1 U Z~0_combout $end
$upscope $end
$upscope $end
$enddefinitions $end
#0
$dumpvars
1!
0"
1#
1$
0%
1&
1'
0(
0)
1*
1+
1,
0-
0.
0/
00
x1
02
13
x4
15
16
17
08
19
0:
1;
1<
0=
0>
1?
0@
1A
1B
0C
1D
0E
0F
0G
1H
1I
0J
0K
1L
1M
0N
0O
1P
1Q
0R
0S
1T
1U
$end
#40000
0!
1"
0#
1(
0D
1O
0H
1J
01
1G
0I
0Q
0P
1N
1K
1I
0<
0;
1:
18
0+
0,
1-
1.
0N
0K
0:
08
0-
0.
1K
18
1.
#80000
1%
0&
1!
0"
0(
1C
0A
1D
0O
0J
11
1S
1E
0B
0G
1P
0K
0I
1;
08
1,
0.
1N
0T
1:
1-
0L
1K
09
18
0*
1.
#120000
0'
0!
1"
1(
0M
0D
1O
1J
01
0S
0E
1G
1T
0N
1Q
0P
1L
0K
0G
0:
1<
0;
19
08
0-
1+
0,
1*
0.
1P
1N
1;
1:
1,
1-
0N
0:
0-
#160000
1#
1&
1'
1!
0(
1H
1A
1M
1D
0J
11
1I
1B
1S
1E
0T
0Q
0L
1K
1T
1G
0<
09
18
0+
0*
1.
1L
0K
19
08
1*
0.
1N
1:
1-
#200000
0#
0'
1(
0H
0M
1J
01
0I
1K
18
1.
0K
08
0.
#240000
0%
0!
0C
0D
11
0S
0E
0P
0;
0,
#280000
0$
0"
0&
1'
1%
0?
0O
0A
1M
1C
01
0T
0G
0B
1I
0L
1K
1P
0N
1Q
0I
1T
09
18
1;
0:
1<
0*
1.
1,
0-
1+
1N
0P
1L
0K
0T
1:
0;
19
08
1-
0,
1*
0.
0L
1K
0U
09
18
0*
1.
1>
10
#320000
0(
1$
1"
0J
1?
1O
11
1P
1;
1,
#360000
1#
1&
0%
0"
1H
1A
0C
0O
01
1I
1B
0N
0Q
0P
1U
1T
0:
0<
0;
0-
0+
0,
1L
0K
1P
0>
19
08
1;
00
1*
0.
1,
#400000
1!
0'
0&
1D
0M
0A
11
0I
0B
1Q
1N
0T
1<
1:
1+
1-
0L
1K
0P
0U
09
18
0;
0*
1.
0,
1>
10
#440000
0$
1'
1&
0?
1M
1A
01
1I
1B
0K
0N
1U
08
0:
0.
0-
1K
1P
0>
18
1;
00
1.
1,
#480000
0#
1%
0!
0'
0H
1C
0D
0M
11
0I
0U
0K
1>
08
10
0.
#500000
1)
1@
01
0B
1N
1L
1K
1:
19
18
1-
1*
1.
0P
0;
0,
#520000
1"
1$
0&
0%
1!
1O
1?
0A
0C
1D
11
1T
1B
1S
1E
1P
0L
0K
1U
1G
1;
09
08
1,
0*
0.
1I
0>
00
0N
0:
0-
1K
18
1.
#560000
1(
1'
0"
1&
1%
1J
1M
0O
1A
1C
01
0I
0B
1F
0E
0K
1N
0P
0Q
0T
0G
08
1:
0;
0<
0.
1-
0,
0+
1R
1L
1K
1P
1=
19
18
1;
1/
1*
1.
1,
0N
0:
0-
#600000
0$
0!
0'
0%
0?
0D
0M
0C
11
0R
0K
1N
0=
08
1:
0/
0.
1-
#640000
0(
0&
0J
0A
01
1B
1K
1G
18
1.
0P
1I
0;
0,
0N
1T
0:
0-
1R
0L
0K
1=
09
08
1/
0*
0.
#680000
1$
1!
1'
1%
1(
1?
1D
1M
1C
1J
11
0I
0R
1N
0T
0=
1:
0/
1-
1R
1L
1K
1=
19
18
1/
1*
1.
#720000
0%
0C
01
0F
1E
1Q
1<
1+
#760000
1#
1&
0$
0!
0'
0(
1H
1A
0?
0D
0M
0J
11
1I
0B
1F
0E
0R
0Q
1T
0G
0=
0<
0/
0+
1R
0L
0K
1P
1=
09
08
1;
1/
0*
0.
1,
0N
0:
0-
#800000
1"
0#
0&
1$
1'
1O
0H
0A
1?
1M
01
1G
0I
1B
0P
0R
1K
0;
0=
18
0,
0/
1.
1N
0K
1P
1:
08
1;
1-
0.
1,
#840000
1%
1(
1#
1&
1C
1J
1H
1A
11
0S
0F
0T
1I
0B
1Q
1R
1L
1K
0N
0G
1T
1<
1=
19
18
0:
1+
1/
1*
1.
0-
0R
0L
0K
0I
0=
09
08
0/
0*
0.
1N
0T
1:
1-
1R
1L
1K
0U
1=
19
18
1/
1*
1.
1>
10
#880000
0'
0(
0#
0M
0J
0H
01
1T
0R
0L
0K
1U
0=
09
08
0/
0*
0.
0>
00
#920000
1!
0%
1'
1(
1#
1D
0C
1M
1J
1H
11
1S
1E
0T
1R
1L
1K
1G
1=
19
18
1/
1*
1.
0P
1I
0;
0,
0N
1T
0:
0-
0R
0L
0K
0=
09
08
0/
0*
0.
#960000
0&
0!
1%
0#
0A
0D
1C
0H
01
1B
0S
0E
0I
1N
0T
1:
1-
1R
1L
1K
1=
19
18
1/
1*
1.
