parteA/simulation/qsim/combinacional.msim.vcd
$comment
	File created using the following command:
		vcd file combinacional.msim.vcd -direction
$end
$date
	Tue Nov 07 20:12:07 2023
$end
$version
	ModelSim Version 10.1d
$end
$timescale
	1ps
$end
$scope module negador_vlg_vec_tst $end
$var reg 1 ! sw1 $end
$var reg 1 " sw2 $end
$var wire 1 # led $end
$var wire 1 $ sampler $end
$scope module i1 $end
$var wire 1 % gnd $end
$var wire 1 & vcc $end
$var wire 1 ' unknown $end
$var tri1 1 ( devclrn $end
$var tri1 1 ) devpor $end
$var tri1 1 * devoe $end
$var wire 1 + led~output_o $end
$var wire 1 , sw2~input_o $end
$var wire 1 - sw1~input_o $end
$var wire 1 . led~0_combout $end
$upscope $end
$upscope $end
$enddefinitions $end
#0
$dumpvars
0!
0"
x#
x$
0%
1&
x'
1(
1)
1*
x+
0,
0-
x.
$end
#4016
0.
#8508
1+
1#
#240000
1"
0$
#240754
1,
#460000
1!
0"
1$
#460724
1-
#460801
0,
#464544
1.
#465854
0.
#720000
1"
0$
#720754
1,
#725673
1.
#730327
0+
0#
#980000
0"
1$
#980801
0,
#985854
0.
#990346
1+
1#
